/*
        object-assign
        (c) Sindre Sorhus
        @license MIT
        */

/*
object-assign
(c) Sindre Sorhus
@license MIT
*/

/*!
                 * Determine if an object is a Buffer
                 *
                 * @author   Feross Aboukhadijeh <https://feross.org>
                 * @license  MIT
                 */

/*!
                 * is-number <https://github.com/jonschlinkert/is-number>
                 *
                 * Copyright (c) 2014-2015, Jon Schlinkert.
                 * Licensed under the MIT License.
                 */

/*!
                Copyright (c) 2017 Jed Watson.
                Licensed under the MIT License (MIT), see
                http://jedwatson.github.io/classnames
                */

/*!
          * The buffer module from node.js, for the browser.
          *
          * @author   Feross Aboukhadijeh <http://feross.org>
          * @license  MIT
          */

/*!
        Copyright (c) 2017 Jed Watson.
        Licensed under the MIT License (MIT), see
        http://jedwatson.github.io/classnames
        */

/*!
 * The buffer module from node.js, for the browser.
 *
 * @author   Feross Aboukhadijeh <http://feross.org>
 * @license  MIT
 */

/*! *****************************************************************************
Copyright (c) Microsoft Corporation.

Permission to use, copy, modify, and/or distribute this software for any
purpose with or without fee is hereby granted.

THE SOFTWARE IS PROVIDED "AS IS" AND THE AUTHOR DISCLAIMS ALL WARRANTIES WITH
REGARD TO THIS SOFTWARE INCLUDING ALL IMPLIED WARRANTIES OF MERCHANTABILITY
AND FITNESS. IN NO EVENT SHALL THE AUTHOR BE LIABLE FOR ANY SPECIAL, DIRECT,
INDIRECT, OR CONSEQUENTIAL DAMAGES OR ANY DAMAGES WHATSOEVER RESULTING FROM
LOSS OF USE, DATA OR PROFITS, WHETHER IN AN ACTION OF CONTRACT, NEGLIGENCE OR
OTHER TORTIOUS ACTION, ARISING OUT OF OR IN CONNECTION WITH THE USE OR
PERFORMANCE OF THIS SOFTWARE.
***************************************************************************** */

/*! *****************************************************************************
Copyright (c) Microsoft Corporation. All rights reserved.
Licensed under the Apache License, Version 2.0 (the "License"); you may not use
this file except in compliance with the License. You may obtain a copy of the
License at http://www.apache.org/licenses/LICENSE-2.0

THIS CODE IS PROVIDED ON AN *AS IS* BASIS, WITHOUT WARRANTIES OR CONDITIONS OF ANY
KIND, EITHER EXPRESS OR IMPLIED, INCLUDING WITHOUT LIMITATION ANY IMPLIED
WARRANTIES OR CONDITIONS OF TITLE, FITNESS FOR A PARTICULAR PURPOSE,
MERCHANTABLITY OR NON-INFRINGEMENT.

See the Apache Version 2.0 License for specific language governing permissions
and limitations under the License.
***************************************************************************** */

/*! @preserve
                * numeral.js
                * version : 2.0.6
                * author : Adam Draper
                * license : MIT
                * http://adamwdraper.github.com/Numeral-js/
                */

/*! @preserve
             * numeral.js
             * version : 2.0.6
             * author : Adam Draper
             * license : MIT
             * http://adamwdraper.github.com/Numeral-js/
             */

/*! @preserve
        * numeral.js
        * version : 2.0.6
        * author : Adam Draper
        * license : MIT
        * http://adamwdraper.github.com/Numeral-js/
        */

/*! @preserve
   * numeral.js
   * version : 2.0.6
   * author : Adam Draper
   * license : MIT
   * http://adamwdraper.github.com/Numeral-js/
   */

/*! @source http://purl.eligrey.com/github/FileSaver.js/blob/master/FileSaver.js */

/*! Moment Duration Format v2.2.2
                *  https://github.com/jsmreese/moment-duration-format
                *  Date: 2018-02-16
                *
                *  Duration format plugin function for the Moment.js library
                *  http://momentjs.com/
                *
                *  Copyright 2018 John Madhavan-Reese
                *  Released under the MIT license
                */

/*! Moment Duration Format v2.2.2
        *  https://github.com/jsmreese/moment-duration-format
        *  Date: 2018-02-16
        *
        *  Duration format plugin function for the Moment.js library
        *  http://momentjs.com/
        *
        *  Copyright 2018 John Madhavan-Reese
        *  Released under the MIT license
        */

/**
           * @ag-grid-community/core - Advanced Data Grid / Data Table supporting Javascript / React / AngularJS / Web Components
           * @version v23.1.0
           * @link http://www.ag-grid.com/
           * @license MIT
           */

/**
          * ag-grid-community - Advanced Data Grid / Data Table supporting Javascript / React / AngularJS / Web Components * @version v23.1.0
          * @link http://www.ag-grid.com/
          ' * @license MIT
          */

/**
         * ag-grid-enterprise - ag-Grid Enterprise Features * @version v23.1.1
         * @link http://www.ag-grid.com/
        ' * @license Commercial
         */

/**
 * @license
 * Lodash <https://lodash.com/>
 * Copyright OpenJS Foundation and other contributors <https://openjsf.org/>
 * Released under MIT license <https://lodash.com/license>
 * Based on Underscore.js 1.8.3 <http://underscorejs.org/LICENSE>
 * Copyright Jeremy Ashkenas, DocumentCloud and Investigative Reporters & Editors
 */

/** @license React v0.19.1
 * scheduler.production.min.js
 *
 * Copyright (c) Facebook, Inc. and its affiliates.
 *
 * This source code is licensed under the MIT license found in the
 * LICENSE file in the root directory of this source tree.
 */

/** @license React v16.12.0
         * react-is.production.min.js
         *
         * Copyright (c) Facebook, Inc. and its affiliates.
         *
         * This source code is licensed under the MIT license found in the
         * LICENSE file in the root directory of this source tree.
         */

/** @license React v16.12.0
 * react-is.production.min.js
 *
 * Copyright (c) Facebook, Inc. and its affiliates.
 *
 * This source code is licensed under the MIT license found in the
 * LICENSE file in the root directory of this source tree.
 */

/** @license React v16.13.1
         * react-dom-server.browser.production.min.js
         *
         * Copyright (c) Facebook, Inc. and its affiliates.
         *
         * This source code is licensed under the MIT license found in the
         * LICENSE file in the root directory of this source tree.
         */

/** @license React v16.13.1
 * react-dom.production.min.js
 *
 * Copyright (c) Facebook, Inc. and its affiliates.
 *
 * This source code is licensed under the MIT license found in the
 * LICENSE file in the root directory of this source tree.
 */

/** @license React v16.13.1
 * react-is.production.min.js
 *
 * Copyright (c) Facebook, Inc. and its affiliates.
 *
 * This source code is licensed under the MIT license found in the
 * LICENSE file in the root directory of this source tree.
 */

/** @license React v16.13.1
 * react.production.min.js
 *
 * Copyright (c) Facebook, Inc. and its affiliates.
 *
 * This source code is licensed under the MIT license found in the
 * LICENSE file in the root directory of this source tree.
 */

/** @license React v16.8.6
                 * react-is.production.min.js
                 *
                 * Copyright (c) Facebook, Inc. and its affiliates.
                 *
                 * This source code is licensed under the MIT license found in the
                 * LICENSE file in the root directory of this source tree.
                 */

/*@cc_on!@*/
